﻿{
	"name": "Agustina",
	"level": 2,
	"dialogType": "narrative",
	"final": true,
	"dialogTree": [
		{
			"index": 0,
			"moods": [
				{
					"mood": "neutral",
					"expre": "pensativa",
					"prompt": "¿Qué hacen acá? ¡La ciudad está terrible!",
					"final": false,
					"replies": [
						{
							"emoVal": 0,
							"exit": false,
							"goTo": 1,
							"text": "¡Por eso te necesitamos! En el camino te explico, ¿estás lista?",
							"friendAdd": true
						}
					]
				}
			]
		},
		{
			"index": 1,
			"moods": [
				{
					"mood": "neutral",
					"expre": "rockera",
					"prompt": "¿Yo? ¡Siempre!",
					"final": true,
					"replies": [{ "emoVal": 0, "exit": true, "goTo": 0, "text": "¡Grande, Agus!", "levelEnd": true }]
				}
			]
		}
	]
}
