﻿{
	name:"Emmanuel",
	level:2,
	type:"narrative",
	dialogTree:[
		{index:0,
			moods:[
				{ 	"mood":"neutral",
					"expre":"sonrisa2",
					"prompt":"¡Sí! Vamos a buscarla, ¡la necesitamos!",
					"final":false,
					replies:[{emoVal:0,exit:false,goTo:1,text:"Con ella en el equipo no nos para nadie.",dialog:"Dra Grimberg"}]
				}
			]
		},
		{index:1,
			moods:[
				{ 	"mood":"neutral",
					"expre":"temeroso",
					"prompt":"Pero gente, ¿no será peligroso eso?",
					"final":true,
					replies:[{emoVal:0,exit:true,goTo:0,text:"Dale, Emma, si apagamos incendios, ¡más vale que podemos rastrear un bidón!"}]
				}
			]
		}

	]
}
