﻿{
	"name": "Mirk",
	"level": 2,
	"type": "et",
	"dialogTree": [
		{
			"index": 0,
			"moods": [
				{
					"mood": "neutral",
					"expre": "alegre",
					"prompt": "...",
					"final": false,
					"replies": [
						{
							"emoVal": 0,
							"exit": false,
							"goTo": 1,
							"text": "Parece que en medio de esta catástrofe estás alegre",
							"rType": "EMPATÍA",
							"rSType": "RECONOCIMIENTO",
							"indicVal": "alegre (alegre)"
						},
						{
							"emoVal": 0,
							"exit": false,
							"goTo": 1,
							"text": "Parece que en medio de esta catástrofe estás aliviado",
							"rType": "EMPATÍA",
							"rSType": "RECONOCIMIENTO",
							"indicVal": "aliviado (alegre)"
						},
						{
							"emoVal": 0,
							"exit": false,
							"goTo": 1,
							"text": "Parece que en medio de esta catástrofe estás relajado",
							"rType": "EMPATÍA",
							"rSType": "RECONOCIMIENTO",
							"indicVal": "relajado (alegre)"
						}
					]
				}
			]
		},
		{
			"index": 1,
			"moods": [
				{
					"mood": "neutral",
					"expre": "alegre",
					"prompt": "Estoy alegre. Soy un optimista incurable y un fanático de los deportes.",
					"final": false,
					"replies": [{ "emoVal": 0, "exit": false, "goTo": 2, "text": "Buena combinación." }]
				}
			]
		},
		{
			"index": 2,
			"moods": [
				{
					"mood": "neutral",
					"expre": "alegre",
					"prompt": "Mientras esperamos que todo se solucione, ¿les cuento algunas anécdotas deportivas?",
					"final": true,
					"replies": [
						{
							"emoVal": 0,
							"exit": true,
							"goTo": 2,
							"text": "Nada nos gustaría más pero tenemos dos dimensiones que salvar",
							"rType": "ASERTIVIDAD",
							"rSType": "NEGARSE",
							"indicVal": "sí"
						},
						{
							"emoVal": 0,
							"exit": true,
							"goTo": 2,
							"text": "¡¿Anécdotas, ahora?! Nos vamos, vos sos más tonto que optimista.",
							"rType": "ASERTIVIDAD",
							"rSType": "NEGARSE",
							"indicVal": "sí - agresivo"
						},
						{
							"emoVal": 0,
							"exit": false,
							"goTo": 3,
							"text": "Contános, dale.",
							"rType": "ASERTIVIDAD",
							"rSType": "NEGARSE",
							"indicVal": "no"
						}
					]
				}
			]
		},
		{
			"index": 3,
			"moods": [
				{
					"mood": "neutral",
					"expre": "alegre",
					"prompt": "En los juegos del 2012, se descalificó al maratonista X-L2 por usar teletransportación para ganar la carrera.",
					"final": true,
					"replies": [
						{ "emoVal": 0, "exit": false, "goTo": 4, "text": "¡Qué vago!" },
						{ "emoVal": 0, "exit": true, "goTo": 2, "text": "Salir" }
					]
				}
			]
		},
		{
			"index": 4,
			"moods": [
				{
					"mood": "neutral",
					"expre": "alegre",
					"prompt": "Isadorisc, del cuadrante 8, fue el primer ser transmente en ganar una medalla de cuarzo.",
					"final": true,
					"replies": [
						{ "emoVal": 0, "exit": false, "goTo": 5, "text": "¡Bien por ella! O por él. Bueno, por lo que sea." },
						{ "emoVal": 0, "exit": true, "goTo": 2, "text": "Salir" }
					]
				}
			]
		},
		{
			"index": 5,
			"moods": [
				{
					"mood": "neutral",
					"expre": "alegre",
					"prompt": "En la competencia de ´Tiro a la tetera´, aún nadie ha superado a la gran Novena Ocho.",
					"final": true,
					"replies": [
						{ "emoVal": 0, "exit": false, "goTo": 6, "text": "Un deporte de alto riesgo para la vajilla." },
						{ "emoVal": 0, "exit": true, "goTo": 2, "text": "Salir" }
					]
				}
			]
		},

		{
			"index": 6,
			"moods": [
				{
					"mood": "neutral",
					"expre": "alegre",
					"prompt": "La final de extremidad - pelota se suspendió este año por una invasión de topos radioactivos que arruinaron la cancha.",
					"final": false,
					"replies": [
						{
							"emoVal": 0,
							"exit": false,
							"goTo": 7,
							"text": "Un problema realmente topográfico. ¡Gracias por desasnarnos!"
						}
					]
				}
			]
		},
		{
			"index": 7,
			"moods": [
				{
					"mood": "neutral",
					"expre": "alegre",
					"prompt": "Ya verán cómo todo se arregla. A menos que muramos todos, claro.",
					"final": true,
					"replies": [{ "emoVal": 0, "exit": true, "goTo": 7, "text": "...Okey. No esperaba eso último, pero bueno." }]
				}
			]
		}
	]
}
