﻿{
	"name": "Mork",
	"level": 5,
	"type": "collab",
	"dialogTree": [
		{
			"index": 0,
			"moods": [
				{
					"mood": "neutral",
					"expre": "ansioso",
					"prompt": "No sé qué hacer.",
					"final": false,
					"replies": [
						{
							"emoVal": 0,
							"exit": false,
							"goTo": 1,
							"text": "(Parece estar en problemas pero mejor sigo de largo.)",
							"rType": "EMPATÍA",
							"rSType": "ACCIÓN",
							"indicVal": "no - moderado"
						},
						{
							"emoVal": 0,
							"exit": false,
							"goTo": 1,
							"text": "Parece que estás en problemas. ¿Podemos ayudarte?",
							"rType": "EMPATÍA",
							"rSType": "ACCIÓN",
							"indicVal": "sí"
						},
						{
							"emoVal": 0,
							"exit": false,
							"goTo": 1,
							"text": "No sé qué te pasa, pero mejor seguimos",
							"rType": "EMPATÍA",
							"rSType": "ACCIÓN",
							"indicVal": "no"
						}
					]
				}
			]
		},
		{
			"index": 1,
			"moods": [
				{
					"mood": "neutral",
					"expre": "ansioso",
					"prompt": "Mi nave está en llamas y si explota puede abrir un vórtice muy peligroso. ¿Apagarían conmigo el incendio?",
					"final": false,
					"replies": [
						{
							"emoVal": 0,
							"exit": true,
							"goTo": 2,
							"text": "Sí, ya mismo.",
							"rType": "COLABORATIVO",
							"rSType": "TODOS",
							"indicVal": "sí"
						},
						{
							"emoVal": 0,
							"exit": false,
							"goTo": 2,
							"text": "No podemos en este momento. Lo lamento de verdad.",
							"rType": "COLABORATIVO",
							"rSType": "TODOS",
							"indicVal": "no - moderado"
						},
						{
							"emoVal": 0,
							"exit": false,
							"goTo": 2,
							"text": "¿Qué te crees que somos? ¿Una sociedad de beneficencia? ¡Arregláte!",
							"rType": "COLABORATIVO",
							"rSType": "TODOS",
							"indicVal": "no - agresivo"
						}
					]
				}
			]
		},
		{
			"index": 2,
			"moods": [
				{
					"mood": "neutral",
					"expre": "preocupado",
					"prompt": "¿Apagamos juntos el incendio de la nave? ¡Si no, puede que se abra un vórtice peligroso!",
					"final": false,
					"replies": [{ "emoVal": 0, "exit": true, "goTo": 2, "text": "Sí, ya mismo." }]
				}
			]
		},
		{
			"index": 3,
			"moods": [
				{
					"mood": "neutral",
					"expre": "excitado",
					"prompt": "Gracias por salvar mi nave y evitar mayores desgracias.",
					"final": true,
					"replies": [{ "emoVal": 0, "exit": true, "goTo": 3, "text": "Todo bien." }]
				}
			]
		}
	]
}
