﻿{
	"name": "Murk",
	"level": 3,
	"type": "narrative",
	"dialogTree": [
		{
			"index": 0,
			"moods": [
				{
					"mood": "neutral",
					"expre": "ansioso",
					"prompt": "Hola, nunca habíamos visto seres con ruedas incorporadas. ¡Qué práctico!",
					"final": false,
					"replies": [
						{
							"emoVal": 0,
							"exit": false,
							"goTo": 1,
							"text": "En realidad tenemos piernas, pero bueno, estamos un poco ocupados como para explicarles anatomía humana."
						}
					]
				}
			]
		},

		{
			"index": 1,
			"moods": [
				{
					"mood": "neutral",
					"expre": "preocupado",
					"prompt": "Ya vemos. Nosotros también estamos ocupados limpiando la contaminación con esta herramienta. Tenemos otra de repuesto...",
					"final": false,
					"replies": [
						{
							"emoVal": 1,
							"exit": false,
							"goTo": 2,
							"text": "Ah, nos vendría muy bien si les sobra, ¿nos la darían?",
							"rType": "ASERTIVIDAD",
							"rSType": "PEDIDO",
							"indicVal": "sí - buen modo"
						},
						{
							"emoVal": 0,
							"exit": false,
							"goTo": 2,
							"text": "No creo que la necesitemos.",
							"rType": "ASERTIVIDAD",
							"rSType": "PEDIDO",
							"indicVal": "no pedir"
						},
						{
							"emoVal": -1,
							"exit": false,
							"goTo": 2,
							"text": "¡Déjense de perder el tiempo y dennos una!",
							"rType": "ASERTIVIDAD",
							"rSType": "PEDIDO",
							"indicVal": "sí - agresivo"
						}
					]
				}
			]
		},

		{
			"index": 2,
			"moods": [
				{
					"mood": "positive",
					"expre": "alegre",
					"prompt": "Seguro, la van a necesitar si quieren atravesar la isla.",
					"final": true,
					"replies": [{ "emoVal": 0, "exit": true, "goTo": 3, "text": "Gracias.", "tool": "Armonizador" }]
				},
				{
					"mood": "neutral",
					"expre": "alegre",
					"prompt": "Llévenla. La van a necesitar si quieren atravesar la isla",
					"final": true,
					"replies": [{ "emoVal": 0, "exit": true, "goTo": 3, "text": "Gracias.", "tool": "Armonizador" }]
				},
				{
					"mood": "negative",
					"expre": "preocupado",
					"prompt": "Bueno, ¡qué carácter! Aquí la tienen.",
					"final": true,
					"replies": [{ "emoVal": 0, "exit": true, "goTo": 3, "text": "Bien. Adiós.", "tool": "Armonizador" }]
				}
			]
		},

		{
			"index": 3,
			"moods": [
				{
					"mood": "neutral",
					"expre": "ansioso",
					"prompt": "Adiós y que lleguen bien. ¡Ojalá este desbarajuste se arregle pronto!",
					"final": true,
					"replies": [{ "emoVal": 0, "exit": true, "goTo": 3, "text": "Lo mismo digo, ¡adiós!" }]
				}
			]
		}
	]
}
